[gd_scene load_steps=3 format=2]

[ext_resource path="res://Sprites/World Sprites/dungeon_sheet.png" type="Texture" id=1]

[sub_resource type="RectangleShape2D" id=1]
extents = Vector2( 8, 6 )

[node name="StaticBody2D" type="StaticBody2D"]

[node name="Sprite" type="Sprite" parent="."]
texture = ExtResource( 1 )
region_enabled = true
region_rect = Rect2( 357.299, 4.47081, 23.618, 37.2064 )

[node name="CollisionShape2D" type="CollisionShape2D" parent="."]
position = Vector2( -1, 9 )
shape = SubResource( 1 )
