[gd_scene load_steps=17 format=2]

[ext_resource path="res://Sprites/World Sprites/dungeon_sheet.png" type="Texture" id=1]
[ext_resource path="res://PlayableCharacters/Player2.tscn" type="PackedScene" id=2]
[ext_resource path="res://Sprites/World Sprites/dungeon_tiles.png" type="Texture" id=3]
[ext_resource path="res://UI/Fonts/NotoSansJP-Light.otf" type="DynamicFontData" id=4]
[ext_resource path="res://EnemyNPC/Enemy.tscn" type="PackedScene" id=5]
[ext_resource path="res://Objects/DongeonPillar.tscn" type="PackedScene" id=6]
[ext_resource path="res://Objects/DongeonPillar2.tscn" type="PackedScene" id=7]
[ext_resource path="res://EnemyNPC/Dealer2.tscn" type="PackedScene" id=8]
[ext_resource path="res://UI/Fonts/chi_dynamicfont.tres" type="DynamicFont" id=9]
[ext_resource path="res://src/UI scripts/MoneyLabel.gd" type="Script" id=10]
[ext_resource path="res://UI/HealthUI.tscn" type="PackedScene" id=11]

[sub_resource type="TileSet" id=2]
0/name = "dungeon_tiles.png 0"
0/texture = ExtResource( 3 )
0/tex_offset = Vector2( 0, 0 )
0/modulate = Color( 1, 1, 1, 1 )
0/region = Rect2( 37, 37, 69, 70 )
0/tile_mode = 0
0/occluder_offset = Vector2( 0, 0 )
0/navigation_offset = Vector2( 0, 0 )
0/shape_offset = Vector2( 0, 0 )
0/shape_transform = Transform2D( 1, 0, 0, 1, 0, 0 )
0/shape_one_way = false
0/shape_one_way_margin = 0.0
0/shapes = [  ]
0/z_index = 0

[sub_resource type="TileSet" id=3]
0/name = "dungeon_sheet.png 0"
0/texture = ExtResource( 1 )
0/tex_offset = Vector2( 0, 0 )
0/modulate = Color( 1, 1, 1, 1 )
0/region = Rect2( 16, 16, 16, 16 )
0/tile_mode = 0
0/occluder_offset = Vector2( 0, 0 )
0/navigation_offset = Vector2( 0, 0 )
0/shape_offset = Vector2( 0, 0 )
0/shape_transform = Transform2D( 1, 0, 0, 1, 0, 0 )
0/shape_one_way = false
0/shape_one_way_margin = 0.0
0/shapes = [  ]
0/z_index = 0

[sub_resource type="TileSet" id=1]
0/name = "dungeon_sheet.png 0"
0/texture = ExtResource( 1 )
0/tex_offset = Vector2( 0, 0 )
0/modulate = Color( 1, 1, 1, 1 )
0/region = Rect2( 96, 0, 16, 32 )
0/tile_mode = 0
0/occluder_offset = Vector2( 0, 0 )
0/navigation_offset = Vector2( 0, 0 )
0/shape_offset = Vector2( 0, 0 )
0/shape_transform = Transform2D( 1, 0, 0, 1, 0, 0 )
0/shape_one_way = false
0/shape_one_way_margin = 0.0
0/shapes = [  ]
0/z_index = 0
1/name = "dungeon_sheet.png 1"
1/texture = ExtResource( 1 )
1/tex_offset = Vector2( 0, 0 )
1/modulate = Color( 1, 1, 1, 1 )
1/region = Rect2( 80, 0, 16, 32 )
1/tile_mode = 0
1/occluder_offset = Vector2( 0, 0 )
1/navigation_offset = Vector2( 0, 0 )
1/shape_offset = Vector2( 0, 0 )
1/shape_transform = Transform2D( 1, 0, 0, 1, 0, 0 )
1/shape_one_way = false
1/shape_one_way_margin = 0.0
1/shapes = [  ]
1/z_index = 0
2/name = "dungeon_sheet.png 2"
2/texture = ExtResource( 1 )
2/tex_offset = Vector2( 0, 0 )
2/modulate = Color( 1, 1, 1, 1 )
2/region = Rect2( 112, 0, 16, 32 )
2/tile_mode = 0
2/occluder_offset = Vector2( 0, 0 )
2/navigation_offset = Vector2( 0, 0 )
2/shape_offset = Vector2( 0, 0 )
2/shape_transform = Transform2D( 1, 0, 0, 1, 0, 0 )
2/shape_one_way = false
2/shape_one_way_margin = 0.0
2/shapes = [  ]
2/z_index = 0
3/name = "dungeon_sheet.png 3"
3/texture = ExtResource( 1 )
3/tex_offset = Vector2( 0, 0 )
3/modulate = Color( 1, 1, 1, 1 )
3/region = Rect2( 32, 48, 16, 32 )
3/tile_mode = 0
3/occluder_offset = Vector2( 0, 0 )
3/navigation_offset = Vector2( 0, 0 )
3/shape_offset = Vector2( 0, 0 )
3/shape_transform = Transform2D( 1, 0, 0, 1, 0, 0 )
3/shape_one_way = false
3/shape_one_way_margin = 0.0
3/shapes = [  ]
3/z_index = 0
4/name = "dungeon_sheet.png 4"
4/texture = ExtResource( 1 )
4/tex_offset = Vector2( 0, 0 )
4/modulate = Color( 1, 1, 1, 1 )
4/region = Rect2( 32, 112, 16, 16 )
4/tile_mode = 0
4/occluder_offset = Vector2( 0, 0 )
4/navigation_offset = Vector2( 0, 0 )
4/shape_offset = Vector2( 0, 0 )
4/shape_transform = Transform2D( 1, 0, 0, 1, 0, 0 )
4/shape_one_way = false
4/shape_one_way_margin = 0.0
4/shapes = [  ]
4/z_index = 0
5/name = "dungeon_sheet.png 5"
5/texture = ExtResource( 1 )
5/tex_offset = Vector2( 0, 0 )
5/modulate = Color( 1, 1, 1, 1 )
5/region = Rect2( 64, 112, 16, 16 )
5/tile_mode = 0
5/occluder_offset = Vector2( 0, 0 )
5/navigation_offset = Vector2( 0, 0 )
5/shape_offset = Vector2( 0, 0 )
5/shape_transform = Transform2D( 1, 0, 0, 1, 0, 0 )
5/shape_one_way = false
5/shape_one_way_margin = 0.0
5/shapes = [  ]
5/z_index = 0
6/name = "dungeon_sheet.png 6"
6/texture = ExtResource( 1 )
6/tex_offset = Vector2( 0, 0 )
6/modulate = Color( 1, 1, 1, 1 )
6/region = Rect2( 80, 32, 16, 16 )
6/tile_mode = 0
6/occluder_offset = Vector2( 0, 0 )
6/navigation_offset = Vector2( 0, 0 )
6/shape_offset = Vector2( 0, 0 )
6/shape_transform = Transform2D( 1, 0, 0, 1, 0, 0 )
6/shape_one_way = false
6/shape_one_way_margin = 0.0
6/shapes = [  ]
6/z_index = 0
7/name = "dungeon_sheet.png 7"
7/texture = ExtResource( 1 )
7/tex_offset = Vector2( 0, 0 )
7/modulate = Color( 1, 1, 1, 1 )
7/region = Rect2( 112, 32, 16, 16 )
7/tile_mode = 0
7/occluder_offset = Vector2( 0, 0 )
7/navigation_offset = Vector2( 0, 0 )
7/shape_offset = Vector2( 0, 0 )
7/shape_transform = Transform2D( 1, 0, 0, 1, 0, 0 )
7/shape_one_way = false
7/shape_one_way_margin = 0.0
7/shapes = [  ]
7/z_index = 0
8/name = "dungeon_sheet.png 8"
8/texture = ExtResource( 1 )
8/tex_offset = Vector2( 0, 0 )
8/modulate = Color( 1, 1, 1, 1 )
8/region = Rect2( 64, 48, 16, 32 )
8/tile_mode = 0
8/occluder_offset = Vector2( 0, 0 )
8/navigation_offset = Vector2( 0, 0 )
8/shape_offset = Vector2( 0, 0 )
8/shape_transform = Transform2D( 1, 0, 0, 1, 0, 0 )
8/shape_one_way = false
8/shape_one_way_margin = 0.0
8/shapes = [  ]
8/z_index = 0
9/name = "dungeon_sheet.png 9"
9/texture = ExtResource( 1 )
9/tex_offset = Vector2( 0, 0 )
9/modulate = Color( 1, 1, 1, 1 )
9/region = Rect2( 128, 48, 16, 16 )
9/tile_mode = 0
9/occluder_offset = Vector2( 0, 0 )
9/navigation_offset = Vector2( 0, 0 )
9/shape_offset = Vector2( 0, 0 )
9/shape_transform = Transform2D( 1, 0, 0, 1, 0, 0 )
9/shape_one_way = false
9/shape_one_way_margin = 0.0
9/shapes = [  ]
9/z_index = 0
10/name = "dungeon_sheet.png 10"
10/texture = ExtResource( 1 )
10/tex_offset = Vector2( 0, 0 )
10/modulate = Color( 1, 1, 1, 1 )
10/region = Rect2( 144, 64, 16, 32 )
10/tile_mode = 0
10/occluder_offset = Vector2( 0, 0 )
10/navigation_offset = Vector2( 0, 0 )
10/shape_offset = Vector2( 0, 0 )
10/shape_transform = Transform2D( 1, 0, 0, 1, 0, 0 )
10/shape_one_way = false
10/shape_one_way_margin = 0.0
10/shapes = [  ]
10/z_index = 0
11/name = "dungeon_sheet.png 11"
11/texture = ExtResource( 1 )
11/tex_offset = Vector2( 0, 0 )
11/modulate = Color( 1, 1, 1, 1 )
11/region = Rect2( 80, 48, 16, 16 )
11/tile_mode = 0
11/occluder_offset = Vector2( 0, 0 )
11/navigation_offset = Vector2( 0, 0 )
11/shape_offset = Vector2( 0, 0 )
11/shape_transform = Transform2D( 1, 0, 0, 1, 0, 0 )
11/shape_one_way = false
11/shape_one_way_margin = 0.0
11/shapes = [  ]
11/z_index = 0
12/name = "dungeon_sheet.png 12"
12/texture = ExtResource( 1 )
12/tex_offset = Vector2( 0, 0 )
12/modulate = Color( 1, 1, 1, 1 )
12/region = Rect2( 112, 48, 16, 16 )
12/tile_mode = 0
12/occluder_offset = Vector2( 0, 0 )
12/navigation_offset = Vector2( 0, 0 )
12/shape_offset = Vector2( 0, 0 )
12/shape_transform = Transform2D( 1, 0, 0, 1, 0, 0 )
12/shape_one_way = false
12/shape_one_way_margin = 0.0
12/shapes = [  ]
12/z_index = 0
13/name = "dungeon_sheet.png 13"
13/texture = ExtResource( 1 )
13/tex_offset = Vector2( 0, 0 )
13/modulate = Color( 1, 1, 1, 1 )
13/region = Rect2( 96, 48, 16, 16 )
13/tile_mode = 0
13/occluder_offset = Vector2( 0, 0 )
13/navigation_offset = Vector2( 0, 0 )
13/shape_offset = Vector2( 0, 0 )
13/shape_transform = Transform2D( 1, 0, 0, 1, 0, 0 )
13/shape_one_way = false
13/shape_one_way_margin = 0.0
13/shapes = [  ]
13/z_index = 0
14/name = "dungeon_sheet.png 14"
14/texture = ExtResource( 1 )
14/tex_offset = Vector2( 0, 0 )
14/modulate = Color( 1, 1, 1, 1 )
14/region = Rect2( 0, 128, 48, 32 )
14/tile_mode = 0
14/occluder_offset = Vector2( 0, 0 )
14/navigation_offset = Vector2( 0, 0 )
14/shape_offset = Vector2( 0, 0 )
14/shape_transform = Transform2D( 1, 0, 0, 1, 0, 0 )
14/shape_one_way = false
14/shape_one_way_margin = 0.0
14/shapes = [  ]
14/z_index = 0
15/name = "dungeon_sheet.png 15"
15/texture = ExtResource( 1 )
15/tex_offset = Vector2( 0, 0 )
15/modulate = Color( 1, 1, 1, 1 )
15/region = Rect2( 64, 96, 16, 16 )
15/tile_mode = 0
15/occluder_offset = Vector2( 0, 0 )
15/navigation_offset = Vector2( 0, 0 )
15/shape_offset = Vector2( 0, 0 )
15/shape_transform = Transform2D( 1, 0, 0, 1, 0, 0 )
15/shape_one_way = false
15/shape_one_way_margin = 0.0
15/shapes = [  ]
15/z_index = 0
16/name = "dungeon_sheet.png 16"
16/texture = ExtResource( 1 )
16/tex_offset = Vector2( 0, 0 )
16/modulate = Color( 1, 1, 1, 1 )
16/region = Rect2( 144, 32, 16, 32 )
16/tile_mode = 0
16/occluder_offset = Vector2( 0, 0 )
16/navigation_offset = Vector2( 0, 0 )
16/shape_offset = Vector2( 0, 0 )
16/shape_transform = Transform2D( 1, 0, 0, 1, 0, 0 )
16/shape_one_way = false
16/shape_one_way_margin = 0.0
16/shapes = [  ]
16/z_index = 0
17/name = "dungeon_sheet.png 17"
17/texture = ExtResource( 1 )
17/tex_offset = Vector2( 0, 0 )
17/modulate = Color( 1, 1, 1, 1 )
17/region = Rect2( 144, 0, 16, 32 )
17/tile_mode = 0
17/occluder_offset = Vector2( 0, 0 )
17/navigation_offset = Vector2( 0, 0 )
17/shape_offset = Vector2( 0, 0 )
17/shape_transform = Transform2D( 1, 0, 0, 1, 0, 0 )
17/shape_one_way = false
17/shape_one_way_margin = 0.0
17/shapes = [  ]
17/z_index = 0
18/name = "dungeon_sheet.png 18"
18/texture = ExtResource( 1 )
18/tex_offset = Vector2( 0, 0 )
18/modulate = Color( 1, 1, 1, 1 )
18/region = Rect2( 48, 48, 16, 32 )
18/tile_mode = 0
18/occluder_offset = Vector2( 0, 0 )
18/navigation_offset = Vector2( 0, 0 )
18/shape_offset = Vector2( 0, 0 )
18/shape_transform = Transform2D( 1, 0, 0, 1, 0, 0 )
18/shape_one_way = false
18/shape_one_way_margin = 0.0
18/shapes = [  ]
18/z_index = 0
19/name = "dungeon_sheet.png 19"
19/texture = ExtResource( 1 )
19/tex_offset = Vector2( 0, 0 )
19/modulate = Color( 1, 1, 1, 1 )
19/region = Rect2( 128, 0, 16, 32 )
19/tile_mode = 0
19/occluder_offset = Vector2( 0, 0 )
19/navigation_offset = Vector2( 0, 0 )
19/shape_offset = Vector2( 0, 0 )
19/shape_transform = Transform2D( 1, 0, 0, 1, 0, 0 )
19/shape_one_way = false
19/shape_one_way_margin = 0.0
19/shapes = [  ]
19/z_index = 0
20/name = "dungeon_sheet.png 20"
20/texture = ExtResource( 1 )
20/tex_offset = Vector2( 0, 0 )
20/modulate = Color( 1, 1, 1, 1 )
20/region = Rect2( 128, 32, 16, 32 )
20/tile_mode = 0
20/occluder_offset = Vector2( 0, 0 )
20/navigation_offset = Vector2( 0, 0 )
20/shape_offset = Vector2( 0, 0 )
20/shape_transform = Transform2D( 1, 0, 0, 1, 0, 0 )
20/shape_one_way = false
20/shape_one_way_margin = 0.0
20/shapes = [  ]
20/z_index = 0
21/name = "dungeon_sheet.png 21"
21/texture = ExtResource( 1 )
21/tex_offset = Vector2( 0, 0 )
21/modulate = Color( 1, 1, 1, 1 )
21/region = Rect2( 128, 0, 16, 16 )
21/tile_mode = 0
21/occluder_offset = Vector2( 0, 0 )
21/navigation_offset = Vector2( 0, 0 )
21/shape_offset = Vector2( 0, 0 )
21/shape_transform = Transform2D( 1, 0, 0, 1, 0, 0 )
21/shape_one_way = false
21/shape_one_way_margin = 0.0
21/shapes = [  ]
21/z_index = 0
22/name = "dungeon_sheet.png 22"
22/texture = ExtResource( 1 )
22/tex_offset = Vector2( 0, 0 )
22/modulate = Color( 1, 1, 1, 1 )
22/region = Rect2( 144, 0, 16, 16 )
22/tile_mode = 0
22/occluder_offset = Vector2( 0, 0 )
22/navigation_offset = Vector2( 0, 0 )
22/shape_offset = Vector2( 0, 0 )
22/shape_transform = Transform2D( 1, 0, 0, 1, 0, 0 )
22/shape_one_way = false
22/shape_one_way_margin = 0.0
22/shapes = [  ]
22/z_index = 0
23/name = "dungeon_sheet.png 23"
23/texture = ExtResource( 1 )
23/tex_offset = Vector2( 0, 0 )
23/modulate = Color( 1, 1, 1, 1 )
23/region = Rect2( 96, 128, 48, 32 )
23/tile_mode = 0
23/occluder_offset = Vector2( 0, 0 )
23/navigation_offset = Vector2( 0, 0 )
23/shape_offset = Vector2( 0, 0 )
23/shape_transform = Transform2D( 1, 0, 0, 1, 0, 0 )
23/shape_one_way = false
23/shape_one_way_margin = 0.0
23/shapes = [  ]
23/z_index = 0
24/name = "dungeon_sheet.png 24"
24/texture = ExtResource( 1 )
24/tex_offset = Vector2( 0, 0 )
24/modulate = Color( 1, 1, 1, 1 )
24/region = Rect2( 144, 128, 48, 32 )
24/tile_mode = 0
24/occluder_offset = Vector2( 0, 0 )
24/navigation_offset = Vector2( 0, 0 )
24/shape_offset = Vector2( 0, 0 )
24/shape_transform = Transform2D( 1, 0, 0, 1, 0, 0 )
24/shape_one_way = false
24/shape_one_way_margin = 0.0
24/shapes = [  ]
24/z_index = 0
25/name = "dungeon_sheet.png 25"
25/texture = ExtResource( 1 )
25/tex_offset = Vector2( 0, 0 )
25/modulate = Color( 1, 1, 1, 1 )
25/region = Rect2( 96, 0, 16, 16 )
25/tile_mode = 0
25/occluder_offset = Vector2( 0, 0 )
25/navigation_offset = Vector2( 0, 0 )
25/shape_offset = Vector2( 0, 0 )
25/shape_transform = Transform2D( 1, 0, 0, 1, 0, 0 )
25/shape_one_way = false
25/shape_one_way_margin = 0.0
25/shapes = [  ]
25/z_index = 0

[sub_resource type="DynamicFont" id=4]
font_data = ExtResource( 4 )

[sub_resource type="AnimationNodeStateMachinePlayback" id=5]

[node name="Level3" type="Node2D"]

[node name="Sprite" type="Sprite" parent="."]
position = Vector2( 71.0858, -152 )
scale = Vector2( 22.1714, 23.4667 )
texture = ExtResource( 1 )
region_enabled = true
region_rect = Rect2( 5.92679, 10.8409, 35.606, 30.0714 )

[node name="TileMap2" type="TileMap" parent="."]
tile_set = SubResource( 2 )
format = 1
tile_data = PoolIntArray( -393219, 0, 0, -393218, 0, 0, -393217, 0, 0, -458752, 0, 0, -458751, 0, 0, -458750, 0, 0, -458749, 0, 0, -458748, 0, 0, -327683, 0, 0, -327682, 0, 0, -327681, 0, 0, -393216, 0, 0, -393215, 0, 0, -393214, 0, 0, -393213, 0, 0, -393212, 0, 0, -262147, 0, 0, -262146, 0, 0, -262145, 0, 0, -327680, 0, 0, -327679, 0, 0, -327678, 0, 0, -327677, 0, 0, -327676, 0, 0, -196611, 0, 0, -196610, 0, 0, -196609, 0, 0, -262144, 0, 0, -262143, 0, 0, -262142, 0, 0, -262141, 0, 0, -262140, 0, 0, -131075, 0, 0, -131074, 0, 0, -131073, 0, 0, -196608, 0, 0, -196607, 0, 0, -196606, 0, 0, -196605, 0, 0, -65538, 0, 0, -65537, 0, 0, -131072, 0, 0, -131071, 0, 0, -131070, 0, 0, -65536, 0, 0, -65535, 0, 0, 0, 0, 0, 1, 0, 0 )

[node name="TileMap3" type="TileMap" parent="."]
tile_set = SubResource( 3 )
cell_size = Vector2( 16, 16 )
cell_quadrant_size = 4
cell_custom_transform = Transform2D( 4, 0, 0, 4, 0, 0 )
format = 1
tile_data = PoolIntArray( -1835009, 0, 0, -1900544, 0, 0, -1769484, 0, 0, -1769483, 0, 0, -1769482, 0, 0, -1769481, 0, 0, -1769480, 0, 0, -1769479, 0, 0, -1769478, 0, 0, -1769477, 0, 0, -1769476, 0, 0, -1769475, 0, 0, -1769474, 0, 0, -1769473, 0, 0, -1835008, 0, 0, -1835007, 0, 0, -1835006, 0, 0, -1835005, 0, 0, -1835004, 0, 0, -1835003, 0, 0, -1835002, 0, 0, -1835001, 0, 0, -1835000, 0, 0, -1834999, 0, 0, -1834998, 0, 0, -1834997, 0, 0, -1834996, 0, 0, -1834995, 0, 0, -1834994, 0, 0, -1834993, 0, 0, -1834992, 0, 0, -1834991, 0, 0, -1834990, 0, 0, -1834989, 0, 0, -1834988, 0, 0, -1703948, 0, 0, -1703947, 0, 0, -1703942, 0, 0, -1703941, 0, 0, -1703940, 0, 0, -1769470, 0, 0, -1769469, 0, 0, -1769468, 0, 0, -1769462, 0, 0, -1769461, 0, 0, -1769460, 0, 0, -1769455, 0, 0, -1769454, 0, 0, -1769453, 0, 0, -1769452, 0, 0, -1638412, 0, 0, -1638411, 0, 0, -1638406, 0, 0, -1638405, 0, 0, -1638404, 0, 0, -1703934, 0, 0, -1703933, 0, 0, -1703932, 0, 0, -1703926, 0, 0, -1703925, 0, 0, -1703924, 0, 0, -1703919, 0, 0, -1703918, 0, 0, -1703917, 0, 0, -1703916, 0, 0, -1572876, 0, 0, -1638382, 0, 0, -1638381, 0, 0, -1638380, 0, 0, -1507340, 0, 0, -1572846, 0, 0, -1572845, 0, 0, -1572844, 0, 0, -1441804, 0, 0, -1507310, 0, 0, -1507309, 0, 0, -1507308, 0, 0, -1376268, 0, 0, -1441774, 0, 0, -1441773, 0, 0, -1441772, 0, 0, -1310732, 0, 0, -1376238, 0, 0, -1376237, 0, 0, -1376236, 0, 0, -1245196, 0, 0, -1310702, 0, 0, -1310701, 0, 0, -1310700, 0, 0, -1179660, 0, 0, -1245166, 0, 0, -1245165, 0, 0, -1245164, 0, 0, -1114124, 0, 0, -1179630, 0, 0, -1179629, 0, 0, -1179628, 0, 0, -1048588, 0, 0, -1114094, 0, 0, -1114093, 0, 0, -1114092, 0, 0, -983052, 0, 0, -1048558, 0, 0, -1048557, 0, 0, -1048556, 0, 0, -917516, 0, 0, -983022, 0, 0, -983021, 0, 0, -983020, 0, 0, -851980, 0, 0, -917486, 0, 0, -917485, 0, 0, -917484, 0, 0, -786444, 0, 0, -851950, 0, 0, -851949, 0, 0, -851948, 0, 0, -720908, 0, 0, -720907, 0, 0, -786415, 0, 0, -786414, 0, 0, -786413, 0, 0, -786412, 0, 0, -655372, 0, 0, -655371, 0, 0, -655370, 0, 0, -720880, 0, 0, -720879, 0, 0, -589836, 0, 0, -589835, 0, 0, -589834, 0, 0, -589833, 0, 0, -655345, 0, 0, -655344, 0, 0, -524300, 0, 0, -524299, 0, 0, -524298, 0, 0, -524297, 0, 0, -524296, 0, 0, -589810, 0, 0, -589809, 0, 0, -589808, 0, 0, -458764, 0, 0, -458763, 0, 0, -458762, 0, 0, -458761, 0, 0, -458760, 0, 0, -458759, 0, 0, -524275, 0, 0, -524274, 0, 0, -524273, 0, 0, -524272, 0, 0, -393224, 0, 0, -393223, 0, 0, -393222, 0, 0, -458740, 0, 0, -458739, 0, 0, -327688, 0, 0, -327687, 0, 0, -327686, 0, 0, -327685, 0, 0, -393205, 0, 0, -393204, 0, 0, -262152, 0, 0, -262151, 0, 0, -262150, 0, 0, -262149, 0, 0, -262148, 0, 0, -262147, 0, 0, -262146, 0, 0, -262145, 0, 0, -327680, 0, 0, -327679, 0, 0, -327675, 0, 0, -327674, 0, 0, -327673, 0, 0, -327672, 0, 0, -327671, 0, 0, -327670, 0, 0, -327669, 0, 0, -327668, 0, 0, -196616, 0, 0, -196615, 0, 0, -196614, 0, 0, -196613, 0, 0, -196612, 0, 0, -196611, 0, 0, -196610, 0, 0, -196609, 0, 0, -262144, 0, 0, -262143, 0, 0, -262139, 0, 0, -262138, 0, 0, -262137, 0, 0, -262136, 0, 0, -262135, 0, 0, -262134, 0, 0, -262133, 0, 0, -262132, 0, 0, -196608, 0, 0, -196607, 0, 0, -196603, 0, 0, -196602, 0, 0, -196601, 0, 0, -196600, 0, 0, -196599, 0, 0, -131072, 0, 0, -131071, 0, 0, -131067, 0, 0, -131066, 0, 0, -131065, 0, 0, -131064, 0, 0, -1, 0, 0, -65536, 0, 0, -65535, 0, 0, -65531, 0, 0, -65530, 0, 0, -65529, 0, 0, -65528, 0, 0, 65535, 0, 0, 7, 0, 0, 8, 0, 0, 131071, 0, 0, 65543, 0, 0, 65544, 0, 0, 196607, 0, 0, 131079, 0, 0, 131080, 0, 0, 262143, 0, 0, 196615, 0, 0, 196616, 0, 0, 327679, 0, 0, 262151, 0, 0, 262152, 0, 0, 393215, 0, 0, 327680, 0, 0, 327681, 0, 0, 327682, 0, 0, 327683, 0, 0, 327684, 0, 0, 327685, 0, 0, 327686, 0, 0, 327687, 0, 0, 327688, 0, 0 )

[node name="TileMap" type="TileMap" parent="."]
tile_set = SubResource( 1 )
cell_size = Vector2( 16, 16 )
cell_quadrant_size = 4
cell_custom_transform = Transform2D( 8, 0, 0, 8, 0, 0 )
format = 1
tile_data = PoolIntArray( -1703946, 1, 0, -1703945, 25, 0, -1703944, 25, 0, -1703943, 2, 0, -1703939, 1, 0, -1703938, 24, 0, -1769471, 2, 0, -1769467, 1, 0, -1769466, 23, 0, -1769463, 2, 0, -1769459, 1, 0, -1769458, 25, 0, -1769457, 25, 0, -1769456, 2, 0, -1638409, 5, 0, -1638408, 5, 0, -1703922, 5, 0, -1703921, 5, 0, -1572875, 1, 0, -1572874, 16, 0, -1572871, 20, 0, -1572870, 14, 0, -1572867, 16, 0, -1638399, 20, 0, -1638398, 14, 0, -1638395, 16, 0, -1638391, 20, 0, -1638390, 14, 0, -1638387, 16, 0, -1638384, 20, 0, -1638383, 2, 0, -1441803, 8, 0, -1507311, 18, 0, -1310731, 6, 0, -1376239, 7, 0, -1245195, 6, 0, -1310703, 7, 0, -1179659, 6, 0, -1245167, 7, 0, -1114123, 6, 0, -1179631, 7, 0, -1048587, 8, 0, -1114095, 18, 0, -917515, 8, 0, -983023, 18, 0, -786443, 11, 0, -786442, 22, 0, -851952, 21, 0, -851951, 12, 0, -720906, 11, 0, -720905, 22, 0, -786417, 21, 0, -786416, 12, 0, -655369, 11, 0, -655368, 22, 0, -720882, 21, 0, -720881, 12, 0, -589832, 11, 0, -589831, 22, 0, -655347, 21, 0, -655346, 12, 0, -524295, 11, 0, -524294, 22, 0, -589812, 21, 0, -589811, 12, 0, -458758, 11, 0, -458757, 22, 0, -524277, 21, 0, -524276, 12, 0, -393221, 11, 0, -393220, 22, 0, -458742, 21, 0, -458741, 12, 0, -327684, 11, 0, -327683, 13, 0, -327682, 13, 0, -327681, 13, 0, -393216, 13, 0, -393215, 13, 0, -393214, 17, 0, -393212, 19, 0, -393211, 13, 0, -393210, 13, 0, -393209, 13, 0, -393208, 13, 0, -393207, 13, 0, -393206, 12, 0, -262142, 8, 0, -262140, 18, 0, -131070, 8, 0, -131068, 18, 0, 0, 1, 0, 1, 0, 0, 2, 16, 0, 4, 20, 0, 5, 0, 0, 6, 2, 0, 131072, 8, 0, 131078, 18, 0, 262144, 11, 0, 262145, 13, 0, 262146, 13, 0, 262147, 13, 0, 262148, 13, 0, 262149, 13, 0, 262150, 12, 0 )

[node name="Label" type="Label" parent="."]
margin_left = -40.0
margin_top = -640.0
margin_right = 40.0
margin_bottom = -616.0
custom_fonts/font = SubResource( 4 )
text = "ブランドン"

[node name="Camera2D" type="Camera2D" parent="."]
position = Vector2( 72, 56 )
current = true
process_mode = 0
smoothing_enabled = true

[node name="YSort" type="YSort" parent="."]

[node name="Player" parent="YSort" instance=ExtResource( 2 )]
position = Vector2( 72, 56 )

[node name="AnimationTree" parent="YSort/Player" index="3"]
parameters/playback = SubResource( 5 )

[node name="RemoteTransform2D" type="RemoteTransform2D" parent="YSort/Player"]
remote_path = NodePath("../../../Camera2D")

[node name="Yenemy" type="YSort" parent="YSort"]

[node name="Enemy" parent="YSort/Yenemy" instance=ExtResource( 5 )]
position = Vector2( 112, -108 )

[node name="Dealer2" parent="YSort/Yenemy" instance=ExtResource( 8 )]
position = Vector2( 53, -208 )
MAX_SPEED = 65

[node name="CollisionShape2D" parent="YSort/Yenemy/Dealer2/PlayerDetectionZone" index="0"]
scale = Vector2( 2, 2 )

[node name="StaticBody2D" parent="YSort" instance=ExtResource( 6 )]
position = Vector2( -32, -160 )
scale = Vector2( 1.5, 1.5 )

[node name="StaticBody2D2" parent="YSort" instance=ExtResource( 6 )]
position = Vector2( 143, -160 )
scale = Vector2( 1.5, 1.5 )

[node name="StaticBody2D3" parent="YSort" instance=ExtResource( 6 )]
position = Vector2( 144, -304 )
scale = Vector2( 1.5, 1.5 )

[node name="StaticBody2D4" parent="YSort" instance=ExtResource( 6 )]
position = Vector2( -33, -304 )
scale = Vector2( 1.5, 1.5 )

[node name="StaticBody2D7" parent="YSort" instance=ExtResource( 6 )]
position = Vector2( -64, -232 )
scale = Vector2( 1.5, 1.5 )

[node name="StaticBody2D8" parent="YSort" instance=ExtResource( 6 )]
position = Vector2( 176, -232 )
scale = Vector2( 1.5, 1.5 )

[node name="StaticBody2D5" parent="YSort" instance=ExtResource( 6 )]
position = Vector2( 53, -328 )
scale = Vector2( 1.5, 1.5 )

[node name="StaticBody2D6" parent="YSort" instance=ExtResource( 6 )]
position = Vector2( 54, -136 )
scale = Vector2( 1.5, 1.5 )

[node name="StaticBody2D9" parent="YSort" instance=ExtResource( 7 )]
position = Vector2( 53, -240 )
scale = Vector2( 1.5, 1.5 )

[node name="StaticBody2D" type="StaticBody2D" parent="."]

[node name="CollisionPolygon2D" type="CollisionPolygon2D" parent="StaticBody2D"]
polygon = PoolVector2Array( -16, -400, -40, -400, -40, -368, -104, -368, -104, -400, -152, -400, -152, -368, -168, -368, -168, -200, -152, -200, -152, -184, -136, -184, -136, -168, -120, -168, -120, -152, -104, -152, -104, -136, -88, -136, -88, -120, -72, -120, -72, -104, -56, -104, -56, -88, 40, -88, 40, 32, 8, 32, 8, 72, 104, 72, 104, 32, 72, 32, 72, -88, 168, -88, 168, -104, 184, -104, 184, -120, 200, -120, 200, -136, 216, -136, 216, -152, 232, -152, 232, -168, 248, -168, 248, -184, 264, -184, 264, -200, 280, -200, 280, -376, 280, -368, 264, -368, 264, -400, 216, -400, 216, -368, 152, -368, 152, -400, 88, -400, 88, -368, 24, -368, 24, -400, 0, -400, 0, -432, 32, -432, 32, -400, 80, -400, 80, -432, 160, -432, 160, -400, 208, -400, 208, -432, 272, -432, 272, -400, 288, -400, 288, -192, 176, -80, 80, -80, 80, 0, 112, 0, 112, 80, 0, 80, 0, 0, 32, 0, 32, -80, -64, -80, -176, -192, -176, -400, -160, -400, -160, -432, -96, -432, -96, -400, -48, -400, -48, -432, -16, -432 )

[node name="HUD" type="CanvasLayer" parent="."]

[node name="HealthUI" parent="HUD" instance=ExtResource( 11 )]

[node name="MoneyUI" type="Control" parent="HUD"]
margin_right = 40.0
margin_bottom = 40.0

[node name="MoneyLabel" type="Label" parent="HUD/MoneyUI"]
margin_top = 10.0
margin_right = 98.0
margin_bottom = 40.0
rect_scale = Vector2( 0.6, 0.6 )
custom_colors/font_color = Color( 0.937255, 0.8, 0.0588235, 1 )
custom_colors/font_color_shadow = Color( 0, 0, 0, 1 )
custom_fonts/font = ExtResource( 9 )
text = "$300"
script = ExtResource( 10 )

[editable path="YSort/Player"]
[editable path="YSort/Player/HitboxPivot/SwordHitBox"]
[editable path="YSort/Player/HurtBox"]
[editable path="YSort/Yenemy/Dealer2"]
[editable path="YSort/Yenemy/Dealer2/HurtBox"]
[editable path="YSort/Yenemy/Dealer2/PlayerDetectionZone"]
[editable path="YSort/Yenemy/Dealer2/HitBox"]
[editable path="YSort/Yenemy/Dealer2/SoftCollision"]
[editable path="HUD/HealthUI"]
